{
  "$schema": "https://raw.githubusercontent.com/spdx/spdx-spec/v2.2.1/schemas/spdx-schema.json",
  "spdxVersion": "SPDX-2.2",
  "dataLicense": "CC0-1.0",
  "SPDXID": "SPDXRef-DOCUMENT",
  "documentNamespace": "https://spdx.org/spdxdocs/libffi-x86-windows-3.4.6-5d9ab07f-0bae-400a-94f0-08e4e96afea0",
  "name": "libffi:x86-windows@3.4.6 32b55a50d7ad6b4c0feac8675bf080912d075b4056601bfb33f9b78d8eedbef6",
  "creationInfo": {
    "creators": [
      "Tool: vcpkg-2024-06-10-02590c430e4ed9215d27870138c2e579cc338772"
    ],
    "created": "2024-06-30T15:31:36Z"
  },
  "relationships": [
    {
      "spdxElementId": "SPDXRef-port",
      "relationshipType": "GENERATES",
      "relatedSpdxElement": "SPDXRef-binary"
    },
    {
      "spdxElementId": "SPDXRef-port",
      "relationshipType": "CONTAINS",
      "relatedSpdxElement": "SPDXRef-file-0"
    },
    {
      "spdxElementId": "SPDXRef-port",
      "relationshipType": "CONTAINS",
      "relatedSpdxElement": "SPDXRef-file-1"
    },
    {
      "spdxElementId": "SPDXRef-port",
      "relationshipType": "CONTAINS",
      "relatedSpdxElement": "SPDXRef-file-2"
    },
    {
      "spdxElementId": "SPDXRef-port",
      "relationshipType": "CONTAINS",
      "relatedSpdxElement": "SPDXRef-file-3"
    },
    {
      "spdxElementId": "SPDXRef-port",
      "relationshipType": "CONTAINS",
      "relatedSpdxElement": "SPDXRef-file-4"
    },
    {
      "spdxElementId": "SPDXRef-port",
      "relationshipType": "CONTAINS",
      "relatedSpdxElement": "SPDXRef-file-5"
    },
    {
      "spdxElementId": "SPDXRef-binary",
      "relationshipType": "GENERATED_FROM",
      "relatedSpdxElement": "SPDXRef-port"
    },
    {
      "spdxElementId": "SPDXRef-file-0",
      "relationshipType": "CONTAINED_BY",
      "relatedSpdxElement": "SPDXRef-port"
    },
    {
      "spdxElementId": "SPDXRef-file-1",
      "relationshipType": "CONTAINED_BY",
      "relatedSpdxElement": "SPDXRef-port"
    },
    {
      "spdxElementId": "SPDXRef-file-2",
      "relationshipType": "CONTAINED_BY",
      "relatedSpdxElement": "SPDXRef-port"
    },
    {
      "spdxElementId": "SPDXRef-file-3",
      "relationshipType": "CONTAINED_BY",
      "relatedSpdxElement": "SPDXRef-port"
    },
    {
      "spdxElementId": "SPDXRef-file-4",
      "relationshipType": "CONTAINED_BY",
      "relatedSpdxElement": "SPDXRef-port"
    },
    {
      "spdxElementId": "SPDXRef-file-5",
      "relationshipType": "CONTAINED_BY",
      "relatedSpdxElement": "SPDXRef-port"
    }
  ],
  "packages": [
    {
      "name": "libffi",
      "SPDXID": "SPDXRef-port",
      "versionInfo": "3.4.6",
      "downloadLocation": "git+https://github.com/Microsoft/vcpkg#ports/libffi",
      "homepage": "https://github.com/libffi/libffi",
      "licenseConcluded": "MIT",
      "licenseDeclared": "NOASSERTION",
      "copyrightText": "NOASSERTION",
      "description": "Portable, high level programming interface to various calling conventions",
      "comment": "This is the port (recipe) consumed by vcpkg."
    },
    {
      "name": "libffi:x86-windows",
      "SPDXID": "SPDXRef-binary",
      "versionInfo": "32b55a50d7ad6b4c0feac8675bf080912d075b4056601bfb33f9b78d8eedbef6",
      "downloadLocation": "NONE",
      "licenseConcluded": "MIT",
      "licenseDeclared": "NOASSERTION",
      "copyrightText": "NOASSERTION",
      "comment": "This is a binary package built by vcpkg."
    },
    {
      "SPDXID": "SPDXRef-resource-1",
      "name": "libffi-${VERSION}.tar.gz",
      "packageFileName": "libffi-${VERSION}.tar.gz",
      "downloadLocation": "https://github.com/libffi/libffi/releases/download/v${VERSION}/libffi-${VERSION}.tar.gz",
      "licenseConcluded": "NOASSERTION",
      "licenseDeclared": "NOASSERTION",
      "copyrightText": "NOASSERTION",
      "checksums": [
        {
          "algorithm": "SHA512",
          "checksumValue": "033d2600e879b83c6bce0eb80f69c5f32aa775bf2e962c9d39fbd21226fa19d1e79173d8eaa0d0157014d54509ea73315ad86842356fc3a303c0831c94c6ab39"
        }
      ]
    }
  ],
  "files": [
    {
      "fileName": "./C:/Users/magjac/vcpkg/ports/libffi/dll-bindir.diff",
      "SPDXID": "SPDXRef-file-0",
      "checksums": [
        {
          "algorithm": "SHA256",
          "checksumValue": "97e9f11ca9f344820dc3b9cba548f4a8818231b1751c518d04ed3c733b8fa8b6"
        }
      ],
      "licenseConcluded": "NOASSERTION",
      "copyrightText": "NOASSERTION"
    },
    {
      "fileName": "./C:/Users/magjac/vcpkg/ports/libffi/libffiConfig.cmake",
      "SPDXID": "SPDXRef-file-1",
      "checksums": [
        {
          "algorithm": "SHA256",
          "checksumValue": "6c7e382749df1b27db5995a21bdc6a6d71241d2fc1cea5cc138119bdd2534318"
        }
      ],
      "licenseConcluded": "NOASSERTION",
      "copyrightText": "NOASSERTION"
    },
    {
      "fileName": "./C:/Users/magjac/vcpkg/ports/libffi/portfile.cmake",
      "SPDXID": "SPDXRef-file-2",
      "checksums": [
        {
          "algorithm": "SHA256",
          "checksumValue": "9810533bdc3965104e95a7494978373f7d7a4f27420aa0a6dc4903bc47a77026"
        }
      ],
      "licenseConcluded": "NOASSERTION",
      "copyrightText": "NOASSERTION"
    },
    {
      "fileName": "./C:/Users/magjac/vcpkg/ports/libffi/unofficial-libffi-config.cmake",
      "SPDXID": "SPDXRef-file-3",
      "checksums": [
        {
          "algorithm": "SHA256",
          "checksumValue": "c34a1f46f0cb6294e63f390dd0bd5bf68a76ede0f3ebaa2c1306c8aed78668bd"
        }
      ],
      "licenseConcluded": "NOASSERTION",
      "copyrightText": "NOASSERTION"
    },
    {
      "fileName": "./C:/Users/magjac/vcpkg/ports/libffi/usage",
      "SPDXID": "SPDXRef-file-4",
      "checksums": [
        {
          "algorithm": "SHA256",
          "checksumValue": "38947206ff1c41dce2eedee93dc0bf3c002030fd13c9f4a2bcda912627974a59"
        }
      ],
      "licenseConcluded": "NOASSERTION",
      "copyrightText": "NOASSERTION"
    },
    {
      "fileName": "./C:/Users/magjac/vcpkg/ports/libffi/vcpkg.json",
      "SPDXID": "SPDXRef-file-5",
      "checksums": [
        {
          "algorithm": "SHA256",
          "checksumValue": "38f78630af752d852f9e4ca711454087e50bad815239437e8e679091b8972b12"
        }
      ],
      "licenseConcluded": "NOASSERTION",
      "copyrightText": "NOASSERTION"
    }
  ]
}
