cmake 3.27.7
features core
getopt-win32 e5828acc190bf4a71cd4b54dac2114d4571fac3a69ae8a8ca6cd3fed7cbf57fe
portfile.cmake 6440db72a29b3cc778f5ac8b8cb4c3fa056b91cc0b54d1f8a0c65e4313ca6981
ports.cmake a70183f63c70824bcc740ec83026e9f5a382f2dd5f462016c071091854d7187f
post_build_checks 2
powershell 7.2.11
triplet x64-windows
triplet_abi 4556164a2cd3dd6f4742101eabb46def7e71b6e5856faa88e5d005aac12a803c-e36df1c7f50ab25f9c182fa927d06c19ae082e0d599f132b3f655784b49e4b33-587828565ac2e9afff4fa4d7c3600946b389739d
vcpkg.json 12f8260ca44cc385c9d9df1bb25ca08e305bc6d8b4f1fb298d77445e7f861e8e
