cmake 3.29.2
features core
meson-crosscompile.patch 34b9f6a5f3422604f21e36d693450650ed241ca21c24a77e2862f9cc62188fd4
portfile.cmake 0d8198ce90835cb675e47ed53612e616564ce88aa7d8575e3507957028927ee0
ports.cmake f8db054dffe069ca9588263db3ef29616483d7228316a32a89782d50035b99cb
post_build_checks 2
powershell 7.2.16
triplet x64-windows
triplet_abi 4556164a2cd3dd6f4742101eabb46def7e71b6e5856faa88e5d005aac12a803c-35332a22d6cb1309b1967c1f42a8f3c0ff58fec1939f84bb1deef16946b27c77-587828565ac2e9afff4fa4d7c3600946b389739d
vcpkg-tool-meson 66a58c3005db907afb789851a95f70f69de036552845bb15d0b96fe6cd4fac9c
vcpkg.json bcb9391d6af376b5e26c8ece12ba7cb3c000f09267a86cf4b41827f2794e95ed
vcpkg_configure_meson ee93cbbf7c8d52f4a401a158dfc0613ef9516ddb4dd03bc944d2d1351288961c
vcpkg_copy_pdbs d57e4f196c82dc562a9968c6155073094513c31e2de475694143d3aa47954b1c
vcpkg_fixup_pkgconfig 1a15f6c6d8e2b244d83a7514a0412d339127d2217d1df60ad1388b546c85f777
vcpkg_from_git 96ed81968f76354c00096dd8cd4e63c6a235fa969334a11ab18d11c0c512ff58
vcpkg_from_github b743742296a114ea1b18ae99672e02f142c4eb2bef7f57d36c038bedbfb0502f
vcpkg_install_copyright ba6c169ab4e59fa05682e530cdeb883767de22c8391f023d4e6844a7ec5dd3d2
vcpkg_install_meson cc77e0248f5e935134c9061e5d424bc6533b561eeeac6f72d1788837cd5d0384
vcpkg_replace_string b450deb79207478b37119743e00808ebc42de0628e7b98c14ab24728bd5c78b8
