{
  "$schema": "https://raw.githubusercontent.com/spdx/spdx-spec/v2.2.1/schemas/spdx-schema.json",
  "spdxVersion": "SPDX-2.2",
  "dataLicense": "CC0-1.0",
  "SPDXID": "SPDXRef-DOCUMENT",
  "documentNamespace": "https://spdx.org/spdxdocs/fribidi-x64-windows-1.0.13-31ba3788-77e2-427e-ac16-d72dbc6fddb4",
  "name": "fribidi:x64-windows@1.0.13 9d630e2c88ec334c63fbbe918577cc5b9b55fe6c9a827eb67ffee6c254e285e7",
  "creationInfo": {
    "creators": [
      "Tool: vcpkg-2024-06-10-02590c430e4ed9215d27870138c2e579cc338772"
    ],
    "created": "2024-06-30T16:13:39Z"
  },
  "relationships": [
    {
      "spdxElementId": "SPDXRef-port",
      "relationshipType": "GENERATES",
      "relatedSpdxElement": "SPDXRef-binary"
    },
    {
      "spdxElementId": "SPDXRef-port",
      "relationshipType": "CONTAINS",
      "relatedSpdxElement": "SPDXRef-file-0"
    },
    {
      "spdxElementId": "SPDXRef-port",
      "relationshipType": "CONTAINS",
      "relatedSpdxElement": "SPDXRef-file-1"
    },
    {
      "spdxElementId": "SPDXRef-port",
      "relationshipType": "CONTAINS",
      "relatedSpdxElement": "SPDXRef-file-2"
    },
    {
      "spdxElementId": "SPDXRef-binary",
      "relationshipType": "GENERATED_FROM",
      "relatedSpdxElement": "SPDXRef-port"
    },
    {
      "spdxElementId": "SPDXRef-file-0",
      "relationshipType": "CONTAINED_BY",
      "relatedSpdxElement": "SPDXRef-port"
    },
    {
      "spdxElementId": "SPDXRef-file-1",
      "relationshipType": "CONTAINED_BY",
      "relatedSpdxElement": "SPDXRef-port"
    },
    {
      "spdxElementId": "SPDXRef-file-2",
      "relationshipType": "CONTAINED_BY",
      "relatedSpdxElement": "SPDXRef-port"
    }
  ],
  "packages": [
    {
      "name": "fribidi",
      "SPDXID": "SPDXRef-port",
      "versionInfo": "1.0.13",
      "downloadLocation": "git+https://github.com/Microsoft/vcpkg#ports/fribidi",
      "licenseConcluded": "LGPL-2.1-or-later",
      "licenseDeclared": "NOASSERTION",
      "copyrightText": "NOASSERTION",
      "description": "GNU FriBidi is an implementation of the Unicode Bidirectional Algorithm (bidi)",
      "comment": "This is the port (recipe) consumed by vcpkg."
    },
    {
      "name": "fribidi:x64-windows",
      "SPDXID": "SPDXRef-binary",
      "versionInfo": "9d630e2c88ec334c63fbbe918577cc5b9b55fe6c9a827eb67ffee6c254e285e7",
      "downloadLocation": "NONE",
      "licenseConcluded": "LGPL-2.1-or-later",
      "licenseDeclared": "NOASSERTION",
      "copyrightText": "NOASSERTION",
      "comment": "This is a binary package built by vcpkg."
    },
    {
      "SPDXID": "SPDXRef-resource-1",
      "name": "fribidi/fribidi",
      "downloadLocation": "git+https://github.com/fribidi/fribidi@v1.0.13",
      "licenseConcluded": "NOASSERTION",
      "licenseDeclared": "NOASSERTION",
      "copyrightText": "NOASSERTION",
      "checksums": [
        {
          "algorithm": "SHA512",
          "checksumValue": "246c904f8e6cc7eee61c03162b42dd0e0ed2163ef02d9d15b8168f0084ccdd9b625b83092915fa42f301106247e3159ad6aee0af42c37643253f7c47d0a520ef"
        }
      ]
    }
  ],
  "files": [
    {
      "fileName": "./C:/Users/magjac/vcpkg/ports/fribidi/meson-crosscompile.patch",
      "SPDXID": "SPDXRef-file-0",
      "checksums": [
        {
          "algorithm": "SHA256",
          "checksumValue": "34b9f6a5f3422604f21e36d693450650ed241ca21c24a77e2862f9cc62188fd4"
        }
      ],
      "licenseConcluded": "NOASSERTION",
      "copyrightText": "NOASSERTION"
    },
    {
      "fileName": "./C:/Users/magjac/vcpkg/ports/fribidi/portfile.cmake",
      "SPDXID": "SPDXRef-file-1",
      "checksums": [
        {
          "algorithm": "SHA256",
          "checksumValue": "0d8198ce90835cb675e47ed53612e616564ce88aa7d8575e3507957028927ee0"
        }
      ],
      "licenseConcluded": "NOASSERTION",
      "copyrightText": "NOASSERTION"
    },
    {
      "fileName": "./C:/Users/magjac/vcpkg/ports/fribidi/vcpkg.json",
      "SPDXID": "SPDXRef-file-2",
      "checksums": [
        {
          "algorithm": "SHA256",
          "checksumValue": "bcb9391d6af376b5e26c8ece12ba7cb3c000f09267a86cf4b41827f2794e95ed"
        }
      ],
      "licenseConcluded": "NOASSERTION",
      "copyrightText": "NOASSERTION"
    }
  ]
}
