{
  "$schema": "https://raw.githubusercontent.com/spdx/spdx-spec/v2.2.1/schemas/spdx-schema.json",
  "spdxVersion": "SPDX-2.2",
  "dataLicense": "CC0-1.0",
  "SPDXID": "SPDXRef-DOCUMENT",
  "documentNamespace": "https://spdx.org/spdxdocs/pango-x86-windows-1.50.14#4-8613ee80-e4eb-4a6c-932c-e213602caacc",
  "name": "pango:x86-windows@1.50.14#4 08292b3560a7ea2c5bd038765e031f810c4814cadebe47a35b0df15afb282dac",
  "creationInfo": {
    "creators": [
      "Tool: vcpkg-2024-06-10-02590c430e4ed9215d27870138c2e579cc338772"
    ],
    "created": "2024-06-30T15:41:30Z"
  },
  "relationships": [
    {
      "spdxElementId": "SPDXRef-port",
      "relationshipType": "GENERATES",
      "relatedSpdxElement": "SPDXRef-binary"
    },
    {
      "spdxElementId": "SPDXRef-port",
      "relationshipType": "CONTAINS",
      "relatedSpdxElement": "SPDXRef-file-0"
    },
    {
      "spdxElementId": "SPDXRef-port",
      "relationshipType": "CONTAINS",
      "relatedSpdxElement": "SPDXRef-file-1"
    },
    {
      "spdxElementId": "SPDXRef-binary",
      "relationshipType": "GENERATED_FROM",
      "relatedSpdxElement": "SPDXRef-port"
    },
    {
      "spdxElementId": "SPDXRef-file-0",
      "relationshipType": "CONTAINED_BY",
      "relatedSpdxElement": "SPDXRef-port"
    },
    {
      "spdxElementId": "SPDXRef-file-1",
      "relationshipType": "CONTAINED_BY",
      "relatedSpdxElement": "SPDXRef-port"
    }
  ],
  "packages": [
    {
      "name": "pango",
      "SPDXID": "SPDXRef-port",
      "versionInfo": "1.50.14#4",
      "downloadLocation": "git+https://github.com/Microsoft/vcpkg#ports/pango",
      "homepage": "https://ftp.gnome.org/pub/GNOME/sources/pango/",
      "licenseConcluded": "LGPL-2.0-or-later",
      "licenseDeclared": "NOASSERTION",
      "copyrightText": "NOASSERTION",
      "description": "Text and font handling library.",
      "comment": "This is the port (recipe) consumed by vcpkg."
    },
    {
      "name": "pango:x86-windows",
      "SPDXID": "SPDXRef-binary",
      "versionInfo": "08292b3560a7ea2c5bd038765e031f810c4814cadebe47a35b0df15afb282dac",
      "downloadLocation": "NONE",
      "licenseConcluded": "LGPL-2.0-or-later",
      "licenseDeclared": "NOASSERTION",
      "copyrightText": "NOASSERTION",
      "comment": "This is a binary package built by vcpkg."
    }
  ],
  "files": [
    {
      "fileName": "./C:/Users/magjac/vcpkg/ports/pango/portfile.cmake",
      "SPDXID": "SPDXRef-file-0",
      "checksums": [
        {
          "algorithm": "SHA256",
          "checksumValue": "e05bb7ba20f1cffaeaabcf74b9f52fccf998a1bde06c81fab39398804cd49d98"
        }
      ],
      "licenseConcluded": "NOASSERTION",
      "copyrightText": "NOASSERTION"
    },
    {
      "fileName": "./C:/Users/magjac/vcpkg/ports/pango/vcpkg.json",
      "SPDXID": "SPDXRef-file-1",
      "checksums": [
        {
          "algorithm": "SHA256",
          "checksumValue": "713f66c4ed96a87a807536cc322509f67ca3dd055d6621ebfbe36770a7846363"
        }
      ],
      "licenseConcluded": "NOASSERTION",
      "copyrightText": "NOASSERTION"
    }
  ]
}
