{
  "$schema": "https://raw.githubusercontent.com/spdx/spdx-spec/v2.2.1/schemas/spdx-schema.json",
  "spdxVersion": "SPDX-2.2",
  "dataLicense": "CC0-1.0",
  "SPDXID": "SPDXRef-DOCUMENT",
  "documentNamespace": "https://spdx.org/spdxdocs/getopt-win32-x64-windows-1.1.0.20220925-96a39e4c-9fd5-4472-bb26-48b2d475acf4",
  "name": "getopt-win32:x64-windows@1.1.0.20220925 e5828acc190bf4a71cd4b54dac2114d4571fac3a69ae8a8ca6cd3fed7cbf57fe",
  "creationInfo": {
    "creators": [
      "Tool: vcpkg-2024-06-10-02590c430e4ed9215d27870138c2e579cc338772"
    ],
    "created": "2024-07-14T14:58:22Z"
  },
  "relationships": [
    {
      "spdxElementId": "SPDXRef-port",
      "relationshipType": "GENERATES",
      "relatedSpdxElement": "SPDXRef-binary"
    },
    {
      "spdxElementId": "SPDXRef-port",
      "relationshipType": "CONTAINS",
      "relatedSpdxElement": "SPDXRef-file-0"
    },
    {
      "spdxElementId": "SPDXRef-port",
      "relationshipType": "CONTAINS",
      "relatedSpdxElement": "SPDXRef-file-1"
    },
    {
      "spdxElementId": "SPDXRef-port",
      "relationshipType": "CONTAINS",
      "relatedSpdxElement": "SPDXRef-file-2"
    },
    {
      "spdxElementId": "SPDXRef-port",
      "relationshipType": "CONTAINS",
      "relatedSpdxElement": "SPDXRef-file-3"
    },
    {
      "spdxElementId": "SPDXRef-binary",
      "relationshipType": "GENERATED_FROM",
      "relatedSpdxElement": "SPDXRef-port"
    },
    {
      "spdxElementId": "SPDXRef-file-0",
      "relationshipType": "CONTAINED_BY",
      "relatedSpdxElement": "SPDXRef-port"
    },
    {
      "spdxElementId": "SPDXRef-file-1",
      "relationshipType": "CONTAINED_BY",
      "relatedSpdxElement": "SPDXRef-port"
    },
    {
      "spdxElementId": "SPDXRef-file-2",
      "relationshipType": "CONTAINED_BY",
      "relatedSpdxElement": "SPDXRef-port"
    },
    {
      "spdxElementId": "SPDXRef-file-3",
      "relationshipType": "CONTAINED_BY",
      "relatedSpdxElement": "SPDXRef-port"
    }
  ],
  "packages": [
    {
      "name": "getopt-win32",
      "SPDXID": "SPDXRef-port",
      "versionInfo": "1.1.0.20220925",
      "downloadLocation": "git+https://github.com/Microsoft/vcpkg#ports/getopt-win32",
      "homepage": "https://www.codeproject.com/Articles/157001/Full-getopt-Port-for-Unicode-and-Multibyte-Microso/",
      "licenseConcluded": "LGPL-3.0-only",
      "licenseDeclared": "NOASSERTION",
      "copyrightText": "NOASSERTION",
      "description": "An implementation of getopt.",
      "comment": "This is the port (recipe) consumed by vcpkg."
    },
    {
      "name": "getopt-win32:x64-windows",
      "SPDXID": "SPDXRef-binary",
      "versionInfo": "e5828acc190bf4a71cd4b54dac2114d4571fac3a69ae8a8ca6cd3fed7cbf57fe",
      "downloadLocation": "NONE",
      "licenseConcluded": "LGPL-3.0-only",
      "licenseDeclared": "NOASSERTION",
      "copyrightText": "NOASSERTION",
      "comment": "This is a binary package built by vcpkg."
    },
    {
      "SPDXID": "SPDXRef-resource-1",
      "name": "xiaozhuai/getopt-win32",
      "downloadLocation": "git+https://github.com/xiaozhuai/getopt-win32@b69a586f0b1aa37b77c3cf0a9dedba1900007678",
      "licenseConcluded": "NOASSERTION",
      "licenseDeclared": "NOASSERTION",
      "copyrightText": "NOASSERTION",
      "checksums": [
        {
          "algorithm": "SHA512",
          "checksumValue": "6e52b6f198073e85b3a29a2fe21435c591fce02c68cb8cf9b546791dd1197e9b91dd9104af449071b4a1d1485817a483f1989a2e585c2d0470cfd079290fe155"
        }
      ]
    }
  ],
  "files": [
    {
      "fileName": "./C:/Users/magjac/vcpkg/ports/getopt-win32/CMakeLists.txt",
      "SPDXID": "SPDXRef-file-0",
      "checksums": [
        {
          "algorithm": "SHA256",
          "checksumValue": "85b4116ac8725881078ac81ea767f9ec5121a07cba122db1d62885ec0c958326"
        }
      ],
      "licenseConcluded": "NOASSERTION",
      "copyrightText": "NOASSERTION"
    },
    {
      "fileName": "./C:/Users/magjac/vcpkg/ports/getopt-win32/portfile.cmake",
      "SPDXID": "SPDXRef-file-1",
      "checksums": [
        {
          "algorithm": "SHA256",
          "checksumValue": "e3fe3d9fe57970bbeb699a01f7eeeba6f5a8557307bc1b9d0a8d01d9def23514"
        }
      ],
      "licenseConcluded": "NOASSERTION",
      "copyrightText": "NOASSERTION"
    },
    {
      "fileName": "./C:/Users/magjac/vcpkg/ports/getopt-win32/usage",
      "SPDXID": "SPDXRef-file-2",
      "checksums": [
        {
          "algorithm": "SHA256",
          "checksumValue": "ad6d9c4748b79171049ae9e71798ed59d92d583d8ade84b613c19e54911564a6"
        }
      ],
      "licenseConcluded": "NOASSERTION",
      "copyrightText": "NOASSERTION"
    },
    {
      "fileName": "./C:/Users/magjac/vcpkg/ports/getopt-win32/vcpkg.json",
      "SPDXID": "SPDXRef-file-3",
      "checksums": [
        {
          "algorithm": "SHA256",
          "checksumValue": "53daf043cb7a1d662ba13874c5e860b011e2742503146b961d3fd8fe9f64f08f"
        }
      ],
      "licenseConcluded": "NOASSERTION",
      "copyrightText": "NOASSERTION"
    }
  ]
}
