CMakeLists.txt 85b4116ac8725881078ac81ea767f9ec5121a07cba122db1d62885ec0c958326
cmake 3.27.7
features core
portfile.cmake e3fe3d9fe57970bbeb699a01f7eeeba6f5a8557307bc1b9d0a8d01d9def23514
ports.cmake a70183f63c70824bcc740ec83026e9f5a382f2dd5f462016c071091854d7187f
post_build_checks 2
powershell 7.2.11
triplet x64-windows
triplet_abi 4556164a2cd3dd6f4742101eabb46def7e71b6e5856faa88e5d005aac12a803c-e36df1c7f50ab25f9c182fa927d06c19ae082e0d599f132b3f655784b49e4b33-587828565ac2e9afff4fa4d7c3600946b389739d
usage ad6d9c4748b79171049ae9e71798ed59d92d583d8ade84b613c19e54911564a6
vcpkg-cmake 64799bf178b9bf2c04b9cdfc05c6b78b1edf86393c049b59e75c444a46a04a0e
vcpkg-cmake-config e6dfb4ac651d7f788e8602ca792569efa1185a6cbd7279781ea4848769a75d9f
vcpkg.json 53daf043cb7a1d662ba13874c5e860b011e2742503146b961d3fd8fe9f64f08f
vcpkg_fixup_pkgconfig 588d833ff057d3ca99c14616c7ecfb5948b5e2a9e4fc02517dceb8b803473457
vcpkg_from_git 8f27bff0d01c6d15a3e691758df52bfbb0b1b929da45c4ebba02ef76b54b1881
vcpkg_from_github b743742296a114ea1b18ae99672e02f142c4eb2bef7f57d36c038bedbfb0502f
vcpkg_install_copyright ba6c169ab4e59fa05682e530cdeb883767de22c8391f023d4e6844a7ec5dd3d2
vcpkg_replace_string d43c8699ce27e25d47367c970d1c546f6bc36b6df8fb0be0c3986eb5830bd4f1
