{
  "$schema": "https://raw.githubusercontent.com/spdx/spdx-spec/v2.2.1/schemas/spdx-schema.json",
  "spdxVersion": "SPDX-2.2",
  "dataLicense": "CC0-1.0",
  "SPDXID": "SPDXRef-DOCUMENT",
  "documentNamespace": "https://spdx.org/spdxdocs/pcre2-x86-windows-10.43-25fd9b05-b3f1-486b-9bc6-73042561018b",
  "name": "pcre2:x86-windows@10.43 818b391cbee68d25109bbea206ba8dd746eaaad3a66f39cbd7d62d50ab66ab1d",
  "creationInfo": {
    "creators": [
      "Tool: vcpkg-2024-06-10-02590c430e4ed9215d27870138c2e579cc338772"
    ],
    "created": "2024-06-30T15:32:26Z"
  },
  "relationships": [
    {
      "spdxElementId": "SPDXRef-port",
      "relationshipType": "GENERATES",
      "relatedSpdxElement": "SPDXRef-binary"
    },
    {
      "spdxElementId": "SPDXRef-port",
      "relationshipType": "CONTAINS",
      "relatedSpdxElement": "SPDXRef-file-0"
    },
    {
      "spdxElementId": "SPDXRef-port",
      "relationshipType": "CONTAINS",
      "relatedSpdxElement": "SPDXRef-file-1"
    },
    {
      "spdxElementId": "SPDXRef-port",
      "relationshipType": "CONTAINS",
      "relatedSpdxElement": "SPDXRef-file-2"
    },
    {
      "spdxElementId": "SPDXRef-port",
      "relationshipType": "CONTAINS",
      "relatedSpdxElement": "SPDXRef-file-3"
    },
    {
      "spdxElementId": "SPDXRef-port",
      "relationshipType": "CONTAINS",
      "relatedSpdxElement": "SPDXRef-file-4"
    },
    {
      "spdxElementId": "SPDXRef-port",
      "relationshipType": "CONTAINS",
      "relatedSpdxElement": "SPDXRef-file-5"
    },
    {
      "spdxElementId": "SPDXRef-binary",
      "relationshipType": "GENERATED_FROM",
      "relatedSpdxElement": "SPDXRef-port"
    },
    {
      "spdxElementId": "SPDXRef-file-0",
      "relationshipType": "CONTAINED_BY",
      "relatedSpdxElement": "SPDXRef-port"
    },
    {
      "spdxElementId": "SPDXRef-file-1",
      "relationshipType": "CONTAINED_BY",
      "relatedSpdxElement": "SPDXRef-port"
    },
    {
      "spdxElementId": "SPDXRef-file-2",
      "relationshipType": "CONTAINED_BY",
      "relatedSpdxElement": "SPDXRef-port"
    },
    {
      "spdxElementId": "SPDXRef-file-3",
      "relationshipType": "CONTAINED_BY",
      "relatedSpdxElement": "SPDXRef-port"
    },
    {
      "spdxElementId": "SPDXRef-file-4",
      "relationshipType": "CONTAINED_BY",
      "relatedSpdxElement": "SPDXRef-port"
    },
    {
      "spdxElementId": "SPDXRef-file-5",
      "relationshipType": "CONTAINED_BY",
      "relatedSpdxElement": "SPDXRef-port"
    }
  ],
  "packages": [
    {
      "name": "pcre2",
      "SPDXID": "SPDXRef-port",
      "versionInfo": "10.43",
      "downloadLocation": "git+https://github.com/Microsoft/vcpkg#ports/pcre2",
      "homepage": "https://github.com/PCRE2Project/pcre2",
      "licenseConcluded": "BSD-3-Clause",
      "licenseDeclared": "NOASSERTION",
      "copyrightText": "NOASSERTION",
      "description": "Regular Expression pattern matching using the same syntax and semantics as Perl 5.",
      "comment": "This is the port (recipe) consumed by vcpkg."
    },
    {
      "name": "pcre2:x86-windows",
      "SPDXID": "SPDXRef-binary",
      "versionInfo": "818b391cbee68d25109bbea206ba8dd746eaaad3a66f39cbd7d62d50ab66ab1d",
      "downloadLocation": "NONE",
      "licenseConcluded": "BSD-3-Clause",
      "licenseDeclared": "NOASSERTION",
      "copyrightText": "NOASSERTION",
      "comment": "This is a binary package built by vcpkg."
    },
    {
      "SPDXID": "SPDXRef-resource-1",
      "name": "PCRE2Project/pcre2",
      "downloadLocation": "git+https://github.com/PCRE2Project/pcre2@pcre2-10.43",
      "licenseConcluded": "NOASSERTION",
      "licenseDeclared": "NOASSERTION",
      "copyrightText": "NOASSERTION",
      "checksums": [
        {
          "algorithm": "SHA512",
          "checksumValue": "50f3b8b10faf432e0ffe87eca84fdebdb10869b092e4dc66c33bd6e2657638d4433698669af2c5ad9f691d27789663682a7235943761f716f5f2e0637deafc97"
        }
      ]
    }
  ],
  "files": [
    {
      "fileName": "./C:/Users/magjac/vcpkg/ports/pcre2/fix-cmake.patch",
      "SPDXID": "SPDXRef-file-0",
      "checksums": [
        {
          "algorithm": "SHA256",
          "checksumValue": "2d8fde38a37c5067e9aa3fd5868de08052eb824be987cc2bafda4b11c15ef48e"
        }
      ],
      "licenseConcluded": "NOASSERTION",
      "copyrightText": "NOASSERTION"
    },
    {
      "fileName": "./C:/Users/magjac/vcpkg/ports/pcre2/no-static-suffix.patch",
      "SPDXID": "SPDXRef-file-1",
      "checksums": [
        {
          "algorithm": "SHA256",
          "checksumValue": "f7b27d68c7dc8c5ec73e0a493e9f8e6136cc2fbd991f5d98f8e6ae3050055171"
        }
      ],
      "licenseConcluded": "NOASSERTION",
      "copyrightText": "NOASSERTION"
    },
    {
      "fileName": "./C:/Users/magjac/vcpkg/ports/pcre2/pcre2-10.35_fix-uwp.patch",
      "SPDXID": "SPDXRef-file-2",
      "checksums": [
        {
          "algorithm": "SHA256",
          "checksumValue": "e062524cf9959d8dbfc5567f9130e897170970f06c42821430798f4093930b1d"
        }
      ],
      "licenseConcluded": "NOASSERTION",
      "copyrightText": "NOASSERTION"
    },
    {
      "fileName": "./C:/Users/magjac/vcpkg/ports/pcre2/portfile.cmake",
      "SPDXID": "SPDXRef-file-3",
      "checksums": [
        {
          "algorithm": "SHA256",
          "checksumValue": "8fa90825c5144eef04ff27dee06810a38f311073fcbc39b9caa27c163817c0df"
        }
      ],
      "licenseConcluded": "NOASSERTION",
      "copyrightText": "NOASSERTION"
    },
    {
      "fileName": "./C:/Users/magjac/vcpkg/ports/pcre2/usage",
      "SPDXID": "SPDXRef-file-4",
      "checksums": [
        {
          "algorithm": "SHA256",
          "checksumValue": "35da1ed15ce962d9ec4421c73b0aaf717128828ddb1b8bee82159ef10e392a2c"
        }
      ],
      "licenseConcluded": "NOASSERTION",
      "copyrightText": "NOASSERTION"
    },
    {
      "fileName": "./C:/Users/magjac/vcpkg/ports/pcre2/vcpkg.json",
      "SPDXID": "SPDXRef-file-5",
      "checksums": [
        {
          "algorithm": "SHA256",
          "checksumValue": "e779a5693b007886c3b538a58b9112856c713e096672ff9c08d83d131dc190b6"
        }
      ],
      "licenseConcluded": "NOASSERTION",
      "copyrightText": "NOASSERTION"
    }
  ]
}
