FindCMath.patch c7271917f2b3165398ed579ac451c9fc05ddbd4f7854ea3997f731d61aa512c4
cmake 3.27.7
features core;jpeg;lzma;zip
libjpeg-turbo b903178ff5380fd11f4bdaf8f236aa657d073616fef9eb1e6bb9020127c1cdf7
liblzma 0bde635609717a1ba52f93315d35c6fa0e77c01379b8518cdca9e68cfa6126fc
portfile.cmake 33589c65d8c0f0ec9c64f4b833f0b9ceda66da1dcf8d09ec4562ab32ea2a3533
ports.cmake a70183f63c70824bcc740ec83026e9f5a382f2dd5f462016c071091854d7187f
post_build_checks 2
powershell 7.2.11
triplet x86-windows
triplet_abi 3e71dd1d4afa622894ae367adbbb1ecbd42c57c51428a86b675fa1c8cad3a581-e36df1c7f50ab25f9c182fa927d06c19ae082e0d599f132b3f655784b49e4b33-f65537bcd9a2ffa0c7109020d2ebdbea5f34f4c2
vcpkg-cmake e0aa26647a901293d5bd891b0e7720f424267a4c05a32b1861c25a53a85e65b4
vcpkg-cmake-config 699fdc08b1bd37c23a408f8a65902ff0c2d949a0a1d44526036e6bf6c6068122
vcpkg-cmake-wrapper.cmake.in 4affcf46005c51aba5d63882b05e86a91344595e5b870a65a0579a72d8e27bb8
vcpkg.json 82bc8cc01002d0e573aac3923df94fcfbd9212fccd4a855b0cc90fcc6fb1d726
vcpkg_check_features 943b217e0968d64cf2cb9c272608e6a0b497377e792034f819809a79e1502c2b
vcpkg_copy_pdbs d57e4f196c82dc562a9968c6155073094513c31e2de475694143d3aa47954b1c
vcpkg_copy_tools 3d45ff761bddbabe8923b52330168dc3abd295fa469d3f2e47cb14dce85332d5
vcpkg_fixup_pkgconfig 588d833ff057d3ca99c14616c7ecfb5948b5e2a9e4fc02517dceb8b803473457
vcpkg_from_git 8f27bff0d01c6d15a3e691758df52bfbb0b1b929da45c4ebba02ef76b54b1881
vcpkg_from_gitlab 5bbb6c56a4be11c0d10d488d95af91a37b15f520eba862254a24c6665dd39588
vcpkg_install_copyright ba6c169ab4e59fa05682e530cdeb883767de22c8391f023d4e6844a7ec5dd3d2
vcpkg_replace_string d43c8699ce27e25d47367c970d1c546f6bc36b6df8fb0be0c3986eb5830bd4f1
zlib becfe78369e10d0b3fec69f439e1e1e6a99af902b316b01bc284204ce307267b
