cmake 3.29.2
copyright 04b60f99a43bfd7fefdc8364b24aac704a2160cef969b75ba6a38b62dc4c4b70
features core
portfile.cmake 832b34e63f5af41ad1b2e4aa79c5bfa507a005b120b51548e674accc706837d7
ports.cmake f8db054dffe069ca9588263db3ef29616483d7228316a32a89782d50035b99cb
post_build_checks 2
powershell 7.2.16
triplet x64-windows
triplet_abi 4556164a2cd3dd6f4742101eabb46def7e71b6e5856faa88e5d005aac12a803c-35332a22d6cb1309b1967c1f42a8f3c0ff58fec1939f84bb1deef16946b27c77-587828565ac2e9afff4fa4d7c3600946b389739d
vcpkg-port-config.cmake 72bc3093337e633bdd19fe5d4dd1f38ca1918def49608d676a9c98c686d38b1e
vcpkg.json 3964c3d0e6b39c7f42cebd5949cccdc7eb6feb83ee434fe73756c954b173c5c2
vcpkg_cmake_config_fixup.cmake f3880578674f1bdbc54b67c5fc3787aaab8ee8bcf4e3e6e008204bf4ab67aa0b
vcpkg_list f5de3ebcbc40a4db90622ade9aca918e2cf404dc0d91342fcde457d730e6fa29
