cmake 3.27.7
cmake.patch c9932c4c8eb4da89e6a6bb4c278f1c34d8f5373daf40969b157c8eb41ba4b983
features core
fix-export-targets.patch a531ab5c8bcc2b76a1dbe5a47e27b2307c380226dc78936c582aaa3fb47726bd
fix-msa-support-for-mips.patch ffb6fa8a946160d912310d1d106cea7d921ea639ba49190ea4d82b54017b4912
pkgconfig.patch ed14a745045bcda01d1fad05760047dc686c500958de12e2438a297d0d65af4b
portfile.cmake c2390173de2e912b3206a1f38c5a5ab3508e779f938aa2d804246db7f18a9f0e
ports.cmake a70183f63c70824bcc740ec83026e9f5a382f2dd5f462016c071091854d7187f
post_build_checks 2
powershell 7.2.11
triplet x86-windows
triplet_abi 3e71dd1d4afa622894ae367adbbb1ecbd42c57c51428a86b675fa1c8cad3a581-e36df1c7f50ab25f9c182fa927d06c19ae082e0d599f132b3f655784b49e4b33-f65537bcd9a2ffa0c7109020d2ebdbea5f34f4c2
usage 9671e4ff1a6a1da38797a5c34912b8e5d71bcd582f678bec7a7f2fbb89fdef1a
vcpkg-cmake e0aa26647a901293d5bd891b0e7720f424267a4c05a32b1861c25a53a85e65b4
vcpkg-cmake-config 699fdc08b1bd37c23a408f8a65902ff0c2d949a0a1d44526036e6bf6c6068122
vcpkg-cmake-wrapper.cmake 4267e69abf185f2228a4cc012e3fe87d5de21a187c75950b5a7615f41c3f6371
vcpkg.json 1be3ab2a12d4f3d4bac144a6ed899d86430c31d5157618eb890019cf93c3d27b
vcpkg_acquire_msys 439bdfd5ffb301ba19a974e7c759dacea6750442ec207f2d0520a1faf11301c0
vcpkg_add_to_path 5f5ae75cf37b2a58d1a8561ca96496b64cd91ec9a0afab0b976c3e5d59030bfe
vcpkg_copy_pdbs d57e4f196c82dc562a9968c6155073094513c31e2de475694143d3aa47954b1c
vcpkg_download_distfile 2d57e1336ae9daab2f04c0623217094b026080d19bdca3a92396d68ea3e729c7
vcpkg_execute_required_process 0c6f52ca848715efd88acfec9bdb2ed3b5f38a650baa6a614bf23ccc3eec150a
vcpkg_fixup_pkgconfig 588d833ff057d3ca99c14616c7ecfb5948b5e2a9e4fc02517dceb8b803473457
vcpkg_from_git 8f27bff0d01c6d15a3e691758df52bfbb0b1b929da45c4ebba02ef76b54b1881
vcpkg_from_github b743742296a114ea1b18ae99672e02f142c4eb2bef7f57d36c038bedbfb0502f
vcpkg_list f5de3ebcbc40a4db90622ade9aca918e2cf404dc0d91342fcde457d730e6fa29
vcpkg_replace_string d43c8699ce27e25d47367c970d1c546f6bc36b6df8fb0be0c3986eb5830bd4f1
zlib becfe78369e10d0b3fec69f439e1e1e6a99af902b316b01bc284204ce307267b
